{
    "result": [
        {
            "id": "id2875421",
            "vendor_id": "2",
            "pickup_datetime": "2016-03-14 17:24:55",
            "dropoff_datetime": "2016-03-14 17:32:30",
            "pickup_longitude": "-73.982154846191406",
            "passenger_count": "1",
            "pickup_latitude": "40.767936706542969",
            "dropoff_longitude": "-73.964630126953125",
            "dropoff_latitude": "40.765602111816406",
            "store_and_fwd_flag": "N",
            "trip_duration": "455"
        },
        {
            "id": "id2377394",
            "vendor_id": "1",
            "pickup_datetime": "2016-06-12 00:43:35",
            "dropoff_datetime": "2016-06-12 00:54:38",
            "pickup_longitude": "-73.980415344238281",
            "passenger_count": "1",
            "pickup_latitude": "40.738563537597656",
            "dropoff_longitude": "-73.999481201171875",
            "dropoff_latitude": "40.731151580810547",
            "store_and_fwd_flag": "N",
            "trip_duration": "663"
        },
        {
            "id": "id3858529",
            "vendor_id": "2",
            "pickup_datetime": "2016-01-19 11:35:24",
            "dropoff_datetime": "2016-01-19 12:10:48",
            "pickup_longitude": "-73.979026794433594",
            "passenger_count": "1",
            "pickup_latitude": "40.763938903808594",
            "dropoff_longitude": "-74.005332946777344",
            "dropoff_latitude": "40.710086822509766",
            "store_and_fwd_flag": "N",
            "trip_duration": "2124"
        },
        {
            "id": "id3504673",
            "vendor_id": "2",
            "pickup_datetime": "2016-04-06 19:32:31",
            "dropoff_datetime": "2016-04-06 19:39:40",
            "pickup_longitude": "-74.010040283203125",
            "passenger_count": "1",
            "pickup_latitude": "40.719970703125",
            "dropoff_longitude": "-74.01226806640625",
            "dropoff_latitude": "40.706718444824219",
            "store_and_fwd_flag": "N",
            "trip_duration": "429"
        },
        {
            "id": "id2181028",
            "vendor_id": "2",
            "pickup_datetime": "2016-03-26 13:30:55",
            "dropoff_datetime": "2016-03-26 13:38:10",
            "pickup_longitude": "-73.973052978515625",
            "passenger_count": "1",
            "pickup_latitude": "40.793209075927734",
            "dropoff_longitude": "-73.972923278808594",
            "dropoff_latitude": "40.782520294189453",
            "store_and_fwd_flag": "N",
            "trip_duration": "435"
        },
        {
            "id": "id0801584",
            "vendor_id": "2",
            "pickup_datetime": "2016-01-30 22:01:40",
            "dropoff_datetime": "2016-01-30 22:09:03",
            "pickup_longitude": "-73.982856750488281",
            "passenger_count": "6",
            "pickup_latitude": "40.742195129394531",
            "dropoff_longitude": "-73.992080688476562",
            "dropoff_latitude": "40.749183654785156",
            "store_and_fwd_flag": "N",
            "trip_duration": "443"
        },
        {
            "id": "id1813257",
            "vendor_id": "1",
            "pickup_datetime": "2016-06-17 22:34:59",
            "dropoff_datetime": "2016-06-17 22:40:40",
            "pickup_longitude": "-73.969017028808594",
            "passenger_count": "4",
            "pickup_latitude": "40.757839202880859",
            "dropoff_longitude": "-73.957405090332031",
            "dropoff_latitude": "40.765895843505859",
            "store_and_fwd_flag": "N",
            "trip_duration": "341"
        },
        {
            "id": "id1324603",
            "vendor_id": "2",
            "pickup_datetime": "2016-05-21 07:54:58",
            "dropoff_datetime": "2016-05-21 08:20:49",
            "pickup_longitude": "-73.969276428222656",
            "passenger_count": "1",
            "pickup_latitude": "40.797779083251953",
            "dropoff_longitude": "-73.922470092773438",
            "dropoff_latitude": "40.76055908203125",
            "store_and_fwd_flag": "N",
            "trip_duration": "1551"
        },
        {
            "id": "id1301050",
            "vendor_id": "1",
            "pickup_datetime": "2016-05-27 23:12:23",
            "dropoff_datetime": "2016-05-27 23:16:38",
            "pickup_longitude": "-73.999481201171875",
            "passenger_count": "1",
            "pickup_latitude": "40.738399505615234",
            "dropoff_longitude": "-73.985786437988281",
            "dropoff_latitude": "40.732814788818359",
            "store_and_fwd_flag": "N",
            "trip_duration": "255"
        },
        {
            "id": "id0012891",
            "vendor_id": "2",
            "pickup_datetime": "2016-03-10 21:45:01",
            "dropoff_datetime": "2016-03-10 22:05:26",
            "pickup_longitude": "-73.981048583984375",
            "passenger_count": "1",
            "pickup_latitude": "40.744338989257813",
            "dropoff_longitude": "-73.972999572753906",
            "dropoff_latitude": "40.789989471435547",
            "store_and_fwd_flag": "N",
            "trip_duration": "1225"
        },
        {
            "id": "id1436371",
            "vendor_id": "2",
            "pickup_datetime": "2016-05-10 22:08:41",
            "dropoff_datetime": "2016-05-10 22:29:55",
            "pickup_longitude": "-73.982650756835938",
            "passenger_count": "1",
            "pickup_latitude": "40.763839721679688",
            "dropoff_longitude": "-74.002227783203125",
            "dropoff_latitude": "40.732990264892578",
            "store_and_fwd_flag": "N",
            "trip_duration": "1274"
        },
        {
            "id": "id1299289",
            "vendor_id": "2",
            "pickup_datetime": "2016-05-15 11:16:11",
            "dropoff_datetime": "2016-05-15 11:34:59",
            "pickup_longitude": "-73.991531372070313",
            "passenger_count": "4",
            "pickup_latitude": "40.749439239501953",
            "dropoff_longitude": "-73.95654296875",
            "dropoff_latitude": "40.7706298828125",
            "store_and_fwd_flag": "N",
            "trip_duration": "1128"
        },
        {
            "id": "id1187965",
            "vendor_id": "2",
            "pickup_datetime": "2016-02-19 09:52:46",
            "dropoff_datetime": "2016-02-19 10:11:20",
            "pickup_longitude": "-73.962982177734375",
            "passenger_count": "2",
            "pickup_latitude": "40.756679534912109",
            "dropoff_longitude": "-73.984405517578125",
            "dropoff_latitude": "40.760719299316406",
            "store_and_fwd_flag": "N",
            "trip_duration": "1114"
        },
        {
            "id": "id0799785",
            "vendor_id": "2",
            "pickup_datetime": "2016-06-01 20:58:29",
            "dropoff_datetime": "2016-06-01 21:02:49",
            "pickup_longitude": "-73.956306457519531",
            "passenger_count": "1",
            "pickup_latitude": "40.767940521240234",
            "dropoff_longitude": "-73.966110229492188",
            "dropoff_latitude": "40.76300048828125",
            "store_and_fwd_flag": "N",
            "trip_duration": "260"
        },
        {
            "id": "id2900608",
            "vendor_id": "2",
            "pickup_datetime": "2016-05-27 00:43:36",
            "dropoff_datetime": "2016-05-27 01:07:10",
            "pickup_longitude": "-73.992195129394531",
            "passenger_count": "1",
            "pickup_latitude": "40.727226257324219",
            "dropoff_longitude": "-73.974655151367188",
            "dropoff_latitude": "40.783069610595703",
            "store_and_fwd_flag": "N",
            "trip_duration": "1414"
        },
        {
            "id": "id3319787",
            "vendor_id": "1",
            "pickup_datetime": "2016-05-16 15:29:02",
            "dropoff_datetime": "2016-05-16 15:32:33",
            "pickup_longitude": "-73.955513000488281",
            "passenger_count": "1",
            "pickup_latitude": "40.768592834472656",
            "dropoff_longitude": "-73.948760986328125",
            "dropoff_latitude": "40.77154541015625",
            "store_and_fwd_flag": "N",
            "trip_duration": "211"
        },
        {
            "id": "id3379579",
            "vendor_id": "2",
            "pickup_datetime": "2016-04-11 17:29:50",
            "dropoff_datetime": "2016-04-11 18:08:26",
            "pickup_longitude": "-73.991165161132813",
            "passenger_count": "1",
            "pickup_latitude": "40.755561828613281",
            "dropoff_longitude": "-73.999290466308594",
            "dropoff_latitude": "40.725353240966797",
            "store_and_fwd_flag": "N",
            "trip_duration": "2316"
        },
        {
            "id": "id1154431",
            "vendor_id": "1",
            "pickup_datetime": "2016-04-14 08:48:26",
            "dropoff_datetime": "2016-04-14 09:00:37",
            "pickup_longitude": "-73.994255065917969",
            "passenger_count": "1",
            "pickup_latitude": "40.745803833007813",
            "dropoff_longitude": "-73.999656677246094",
            "dropoff_latitude": "40.723342895507813",
            "store_and_fwd_flag": "N",
            "trip_duration": "731"
        },
        {
            "id": "id3552682",
            "vendor_id": "1",
            "pickup_datetime": "2016-06-27 09:55:13",
            "dropoff_datetime": "2016-06-27 10:17:10",
            "pickup_longitude": "-74.003982543945313",
            "passenger_count": "1",
            "pickup_latitude": "40.7130126953125",
            "dropoff_longitude": "-73.979194641113281",
            "dropoff_latitude": "40.749923706054688",
            "store_and_fwd_flag": "N",
            "trip_duration": "1317"
        },
        {
            "id": "id3390316",
            "vendor_id": "2",
            "pickup_datetime": "2016-06-05 13:47:23",
            "dropoff_datetime": "2016-06-05 13:51:34",
            "pickup_longitude": "-73.98388671875",
            "passenger_count": "1",
            "pickup_latitude": "40.738197326660156",
            "dropoff_longitude": "-73.991203308105469",
            "dropoff_latitude": "40.727870941162109",
            "store_and_fwd_flag": "N",
            "trip_duration": "251"
        },
        {
            "id": "id2070428",
            "vendor_id": "1",
            "pickup_datetime": "2016-02-28 02:23:02",
            "dropoff_datetime": "2016-02-28 02:31:08",
            "pickup_longitude": "-73.980369567871094",
            "passenger_count": "1",
            "pickup_latitude": "40.742420196533203",
            "dropoff_longitude": "-73.962852478027344",
            "dropoff_latitude": "40.760635375976563",
            "store_and_fwd_flag": "N",
            "trip_duration": "486"
        },
        {
            "id": "id0809232",
            "vendor_id": "2",
            "pickup_datetime": "2016-04-01 12:12:25",
            "dropoff_datetime": "2016-04-01 12:23:17",
            "pickup_longitude": "-73.979537963867188",
            "passenger_count": "1",
            "pickup_latitude": "40.753360748291016",
            "dropoff_longitude": "-73.963996887207031",
            "dropoff_latitude": "40.763458251953125",
            "store_and_fwd_flag": "N",
            "trip_duration": "652"
        },
        {
            "id": "id2352683",
            "vendor_id": "1",
            "pickup_datetime": "2016-04-09 03:34:27",
            "dropoff_datetime": "2016-04-09 03:41:30",
            "pickup_longitude": "-73.995864868164063",
            "passenger_count": "1",
            "pickup_latitude": "40.758811950683594",
            "dropoff_longitude": "-73.993324279785156",
            "dropoff_latitude": "40.740322113037109",
            "store_and_fwd_flag": "N",
            "trip_duration": "423"
        },
        {
            "id": "id1603037",
            "vendor_id": "1",
            "pickup_datetime": "2016-06-25 10:36:26",
            "dropoff_datetime": "2016-06-25 10:55:49",
            "pickup_longitude": "-73.993553161621094",
            "passenger_count": "1",
            "pickup_latitude": "40.747173309326172",
            "dropoff_longitude": "-74.006141662597656",
            "dropoff_latitude": "40.704383850097656",
            "store_and_fwd_flag": "N",
            "trip_duration": "1163"
        },
        {
            "id": "id3321406",
            "vendor_id": "2",
            "pickup_datetime": "2016-06-03 08:15:05",
            "dropoff_datetime": "2016-06-03 08:56:30",
            "pickup_longitude": "-73.955230712890625",
            "passenger_count": "1",
            "pickup_latitude": "40.777133941650391",
            "dropoff_longitude": "-73.788749694824219",
            "dropoff_latitude": "40.641471862792969",
            "store_and_fwd_flag": "N",
            "trip_duration": "2485"
        },
        {
            "id": "id0129640",
            "vendor_id": "2",
            "pickup_datetime": "2016-02-14 13:27:56",
            "dropoff_datetime": "2016-02-14 13:49:19",
            "pickup_longitude": "-73.956581115722656",
            "passenger_count": "1",
            "pickup_latitude": "40.771358489990234",
            "dropoff_longitude": "-73.974967956542969",
            "dropoff_latitude": "40.732791900634766",
            "store_and_fwd_flag": "N",
            "trip_duration": "1283"
        },
        {
            "id": "id3587298",
            "vendor_id": "1",
            "pickup_datetime": "2016-02-27 21:56:01",
            "dropoff_datetime": "2016-02-27 22:14:51",
            "pickup_longitude": "-73.9837646484375",
            "passenger_count": "1",
            "pickup_latitude": "40.749874114990234",
            "dropoff_longitude": "-73.958831787109375",
            "dropoff_latitude": "40.800960540771484",
            "store_and_fwd_flag": "N",
            "trip_duration": "1130"
        },
        {
            "id": "id2104175",
            "vendor_id": "1",
            "pickup_datetime": "2016-06-20 23:07:16",
            "dropoff_datetime": "2016-06-20 23:18:50",
            "pickup_longitude": "-73.95843505859375",
            "passenger_count": "1",
            "pickup_latitude": "40.713191986083984",
            "dropoff_longitude": "-73.949539184570312",
            "dropoff_latitude": "40.680252075195313",
            "store_and_fwd_flag": "N",
            "trip_duration": "694"
        },
        {
            "id": "id3973319",
            "vendor_id": "2",
            "pickup_datetime": "2016-06-13 21:57:27",
            "dropoff_datetime": "2016-06-13 22:12:19",
            "pickup_longitude": "-73.994216918945313",
            "passenger_count": "1",
            "pickup_latitude": "40.713306427001953",
            "dropoff_longitude": "-73.98284912109375",
            "dropoff_latitude": "40.692298889160156",
            "store_and_fwd_flag": "N",
            "trip_duration": "892"
        },
        {
            "id": "id1410897",
            "vendor_id": "1",
            "pickup_datetime": "2016-03-23 14:10:39",
            "dropoff_datetime": "2016-03-23 14:49:30",
            "pickup_longitude": "-73.98211669921875",
            "passenger_count": "1",
            "pickup_latitude": "40.756351470947266",
            "dropoff_longitude": "-73.865692138671875",
            "dropoff_latitude": "40.770988464355469",
            "store_and_fwd_flag": "N",
            "trip_duration": "2331"
        },
        {
            "id": "id0266980",
            "vendor_id": "1",
            "pickup_datetime": "2016-05-17 10:47:51",
            "dropoff_datetime": "2016-05-17 11:12:30",
            "pickup_longitude": "-73.970939636230469",
            "passenger_count": "1",
            "pickup_latitude": "40.761669158935547",
            "dropoff_longitude": "-73.996238708496094",
            "dropoff_latitude": "40.725368499755859",
            "store_and_fwd_flag": "N",
            "trip_duration": "1479"
        },
        {
            "id": "id2822549",
            "vendor_id": "2",
            "pickup_datetime": "2016-05-21 13:03:24",
            "dropoff_datetime": "2016-05-21 13:20:52",
            "pickup_longitude": "-73.998268127441406",
            "passenger_count": "1",
            "pickup_latitude": "40.720039367675781",
            "dropoff_longitude": "-74.010360717773438",
            "dropoff_latitude": "40.672138214111328",
            "store_and_fwd_flag": "N",
            "trip_duration": "1048"
        },
        {
            "id": "id3075902",
            "vendor_id": "2",
            "pickup_datetime": "2016-05-10 19:27:38",
            "dropoff_datetime": "2016-05-10 19:44:40",
            "pickup_longitude": "-74.005500793457031",
            "passenger_count": "2",
            "pickup_latitude": "40.706588745117187",
            "dropoff_longitude": "-73.985816955566406",
            "dropoff_latitude": "40.74420166015625",
            "store_and_fwd_flag": "N",
            "trip_duration": "1022"
        },
        {
            "id": "id0023813",
            "vendor_id": "1",
            "pickup_datetime": "2016-04-17 14:38:30",
            "dropoff_datetime": "2016-04-17 15:16:19",
            "pickup_longitude": "-73.990310668945313",
            "passenger_count": "1",
            "pickup_latitude": "40.756580352783203",
            "dropoff_longitude": "-73.870918273925781",
            "dropoff_latitude": "40.773929595947266",
            "store_and_fwd_flag": "N",
            "trip_duration": "2269"
        },
        {
            "id": "id3970352",
            "vendor_id": "1",
            "pickup_datetime": "2016-01-09 12:55:35",
            "dropoff_datetime": "2016-01-09 13:07:22",
            "pickup_longitude": "-74.008995056152344",
            "passenger_count": "1",
            "pickup_latitude": "40.712589263916016",
            "dropoff_longitude": "-73.998634338378906",
            "dropoff_latitude": "40.722808837890625",
            "store_and_fwd_flag": "N",
            "trip_duration": "707"
        },
        {
            "id": "id3361153",
            "vendor_id": "1",
            "pickup_datetime": "2016-03-11 07:11:23",
            "dropoff_datetime": "2016-03-11 07:20:09",
            "pickup_longitude": "-73.994560241699219",
            "passenger_count": "1",
            "pickup_latitude": "40.750526428222656",
            "dropoff_longitude": "-73.978500366210938",
            "dropoff_latitude": "40.756191253662109",
            "store_and_fwd_flag": "N",
            "trip_duration": "526"
        },
        {
            "id": "id1870624",
            "vendor_id": "1",
            "pickup_datetime": "2016-01-05 15:29:54",
            "dropoff_datetime": "2016-01-05 15:39:07",
            "pickup_longitude": "-73.951515197753906",
            "passenger_count": "3",
            "pickup_latitude": "40.770248413085937",
            "dropoff_longitude": "-73.958526611328125",
            "dropoff_latitude": "40.761516571044922",
            "store_and_fwd_flag": "N",
            "trip_duration": "553"
        },
        {
            "id": "id2403238",
            "vendor_id": "1",
            "pickup_datetime": "2016-06-23 23:00:09",
            "dropoff_datetime": "2016-06-23 23:04:46",
            "pickup_longitude": "-73.988067626953125",
            "passenger_count": "1",
            "pickup_latitude": "40.728080749511719",
            "dropoff_longitude": "-73.980751037597656",
            "dropoff_latitude": "40.721469879150391",
            "store_and_fwd_flag": "N",
            "trip_duration": "277"
        },
        {
            "id": "id3323083",
            "vendor_id": "1",
            "pickup_datetime": "2016-05-27 14:26:12",
            "dropoff_datetime": "2016-05-27 14:46:01",
            "pickup_longitude": "-73.978126525878906",
            "passenger_count": "2",
            "pickup_latitude": "40.758342742919922",
            "dropoff_longitude": "-73.99224853515625",
            "dropoff_latitude": "40.730541229248047",
            "store_and_fwd_flag": "N",
            "trip_duration": "1189"
        },
        {
            "id": "id3720663",
            "vendor_id": "1",
            "pickup_datetime": "2016-05-10 16:14:56",
            "dropoff_datetime": "2016-05-10 16:40:19",
            "pickup_longitude": "-73.977767944335937",
            "passenger_count": "1",
            "pickup_latitude": "40.774078369140625",
            "dropoff_longitude": "-73.9471435546875",
            "dropoff_latitude": "40.775993347167969",
            "store_and_fwd_flag": "N",
            "trip_duration": "1523"
        },
        {
            "id": "id0578558",
            "vendor_id": "1",
            "pickup_datetime": "2016-04-21 21:28:27",
            "dropoff_datetime": "2016-04-21 21:52:37",
            "pickup_longitude": "-73.988548278808594",
            "passenger_count": "2",
            "pickup_latitude": "40.745979309082031",
            "dropoff_longitude": "-73.97088623046875",
            "dropoff_latitude": "40.793384552001953",
            "store_and_fwd_flag": "N",
            "trip_duration": "1450"
        },
        {
            "id": "id2573056",
            "vendor_id": "2",
            "pickup_datetime": "2016-04-14 13:27:52",
            "dropoff_datetime": "2016-04-14 13:46:14",
            "pickup_longitude": "-73.974723815917969",
            "passenger_count": "2",
            "pickup_latitude": "40.751136779785156",
            "dropoff_longitude": "-73.954444885253906",
            "dropoff_latitude": "40.764118194580078",
            "store_and_fwd_flag": "N",
            "trip_duration": "1102"
        },
        {
            "id": "id2129090",
            "vendor_id": "1",
            "pickup_datetime": "2016-03-14 14:05:39",
            "dropoff_datetime": "2016-03-14 14:28:05",
            "pickup_longitude": "-73.975090026855469",
            "passenger_count": "1",
            "pickup_latitude": "40.758766174316406",
            "dropoff_longitude": "-73.953201293945313",
            "dropoff_latitude": "40.765068054199219",
            "store_and_fwd_flag": "N",
            "trip_duration": "1346"
        },
        {
            "id": "id3961107",
            "vendor_id": "1",
            "pickup_datetime": "2016-03-19 01:12:46",
            "dropoff_datetime": "2016-03-19 01:18:49",
            "pickup_longitude": "-73.976470947265625",
            "passenger_count": "1",
            "pickup_latitude": "40.739780426025391",
            "dropoff_longitude": "-73.980667114257813",
            "dropoff_latitude": "40.729965209960938",
            "store_and_fwd_flag": "N",
            "trip_duration": "363"
        },
        {
            "id": "id3326491",
            "vendor_id": "2",
            "pickup_datetime": "2016-02-12 07:41:56",
            "dropoff_datetime": "2016-02-12 07:51:15",
            "pickup_longitude": "-73.979644775390625",
            "passenger_count": "1",
            "pickup_latitude": "40.739631652832031",
            "dropoff_longitude": "-73.994728088378906",
            "dropoff_latitude": "40.723495483398438",
            "store_and_fwd_flag": "N",
            "trip_duration": "559"
        },
        {
            "id": "id0718344",
            "vendor_id": "2",
            "pickup_datetime": "2016-06-13 15:52:20",
            "dropoff_datetime": "2016-06-13 16:16:58",
            "pickup_longitude": "-74.016326904296875",
            "passenger_count": "1",
            "pickup_latitude": "40.704990386962891",
            "dropoff_longitude": "-73.982109069824219",
            "dropoff_latitude": "40.773750305175781",
            "store_and_fwd_flag": "N",
            "trip_duration": "1478"
        },
        {
            "id": "id3188770",
            "vendor_id": "1",
            "pickup_datetime": "2016-01-03 16:59:02",
            "dropoff_datetime": "2016-01-03 17:04:50",
            "pickup_longitude": "-73.985137939453125",
            "passenger_count": "1",
            "pickup_latitude": "40.732192993164063",
            "dropoff_longitude": "-73.989639282226563",
            "dropoff_latitude": "40.720874786376953",
            "store_and_fwd_flag": "N",
            "trip_duration": "348"
        },
        {
            "id": "id1956279",
            "vendor_id": "2",
            "pickup_datetime": "2016-02-26 08:37:00",
            "dropoff_datetime": "2016-02-26 08:43:15",
            "pickup_longitude": "-73.981658935546875",
            "passenger_count": "1",
            "pickup_latitude": "40.778972625732422",
            "dropoff_longitude": "-73.969810485839844",
            "dropoff_latitude": "40.792129516601563",
            "store_and_fwd_flag": "N",
            "trip_duration": "375"
        },
        {
            "id": "id2391523",
            "vendor_id": "1",
            "pickup_datetime": "2016-05-18 21:50:24",
            "dropoff_datetime": "2016-05-18 22:10:41",
            "pickup_longitude": "-73.966163635253906",
            "passenger_count": "3",
            "pickup_latitude": "40.766914367675781",
            "dropoff_longitude": "-73.992179870605469",
            "dropoff_latitude": "40.725818634033203",
            "store_and_fwd_flag": "N",
            "trip_duration": "1217"
        },
        {
            "id": "id2662609",
            "vendor_id": "1",
            "pickup_datetime": "2016-04-10 19:11:03",
            "dropoff_datetime": "2016-04-10 19:25:39",
            "pickup_longitude": "-73.965469360351562",
            "passenger_count": "1",
            "pickup_latitude": "40.765846252441406",
            "dropoff_longitude": "-73.960952758789063",
            "dropoff_latitude": "40.796928405761719",
            "store_and_fwd_flag": "N",
            "trip_duration": "876"
        },
        {
            "id": "id2067879",
            "vendor_id": "2",
            "pickup_datetime": "2016-01-19 23:19:01",
            "dropoff_datetime": "2016-01-19 23:44:58",
            "pickup_longitude": "-73.996818542480469",
            "passenger_count": "1",
            "pickup_latitude": "40.752861022949219",
            "dropoff_longitude": "-73.809005737304688",
            "dropoff_latitude": "40.816875457763672",
            "store_and_fwd_flag": "N",
            "trip_duration": "1557"
        },
        {
            "id": "id1939961",
            "vendor_id": "1",
            "pickup_datetime": "2016-05-07 13:18:52",
            "dropoff_datetime": "2016-05-07 13:46:19",
            "pickup_longitude": "-73.977256774902344",
            "passenger_count": "1",
            "pickup_latitude": "40.774246215820313",
            "dropoff_longitude": "-73.990013122558594",
            "dropoff_latitude": "40.732654571533203",
            "store_and_fwd_flag": "N",
            "trip_duration": "1647"
        },
        {
            "id": "id0675800",
            "vendor_id": "2",
            "pickup_datetime": "2016-02-15 09:25:15",
            "dropoff_datetime": "2016-02-15 09:35:49",
            "pickup_longitude": "-73.977752685546875",
            "passenger_count": "6",
            "pickup_latitude": "40.754631042480469",
            "dropoff_longitude": "-74.001678466796875",
            "dropoff_latitude": "40.756420135498047",
            "store_and_fwd_flag": "N",
            "trip_duration": "634"
        },
        {
            "id": "id2569332",
            "vendor_id": "1",
            "pickup_datetime": "2016-04-13 14:24:47",
            "dropoff_datetime": "2016-04-13 14:30:52",
            "pickup_longitude": "-73.968727111816406",
            "passenger_count": "1",
            "pickup_latitude": "40.78643798828125",
            "dropoff_longitude": "-73.960494995117188",
            "dropoff_latitude": "40.778152465820313",
            "store_and_fwd_flag": "N",
            "trip_duration": "365"
        },
        {
            "id": "id0526266",
            "vendor_id": "2",
            "pickup_datetime": "2016-05-15 09:42:58",
            "dropoff_datetime": "2016-05-15 09:56:37",
            "pickup_longitude": "-73.934883117675781",
            "passenger_count": "1",
            "pickup_latitude": "40.801010131835938",
            "dropoff_longitude": "-73.983001708984375",
            "dropoff_latitude": "40.722568511962891",
            "store_and_fwd_flag": "N",
            "trip_duration": "819"
        },
        {
            "id": "id3827863",
            "vendor_id": "2",
            "pickup_datetime": "2016-04-19 11:29:08",
            "dropoff_datetime": "2016-04-19 12:27:56",
            "pickup_longitude": "-73.792892456054688",
            "passenger_count": "3",
            "pickup_latitude": "40.657878875732422",
            "dropoff_longitude": "-73.809188842773438",
            "dropoff_latitude": "40.690181732177734",
            "store_and_fwd_flag": "N",
            "trip_duration": "3528"
        },
        {
            "id": "id1388344",
            "vendor_id": "2",
            "pickup_datetime": "2016-01-02 15:41:11",
            "dropoff_datetime": "2016-01-02 16:01:39",
            "pickup_longitude": "-73.982337951660156",
            "passenger_count": "2",
            "pickup_latitude": "40.762809753417969",
            "dropoff_longitude": "-73.982856750488281",
            "dropoff_latitude": "40.748779296875",
            "store_and_fwd_flag": "N",
            "trip_duration": "1228"
        },
        {
            "id": "id1079955",
            "vendor_id": "1",
            "pickup_datetime": "2016-04-22 11:28:00",
            "dropoff_datetime": "2016-04-22 12:11:27",
            "pickup_longitude": "-73.994850158691406",
            "passenger_count": "1",
            "pickup_latitude": "40.718780517578125",
            "dropoff_longitude": "-73.983413696289062",
            "dropoff_latitude": "40.75885009765625",
            "store_and_fwd_flag": "N",
            "trip_duration": "2607"
        },
        {
            "id": "id0256505",
            "vendor_id": "1",
            "pickup_datetime": "2016-03-14 15:04:38",
            "dropoff_datetime": "2016-03-14 15:16:13",
            "pickup_longitude": "-73.994483947753906",
            "passenger_count": "1",
            "pickup_latitude": "40.745086669921875",
            "dropoff_longitude": "-73.998992919921875",
            "dropoff_latitude": "40.722709655761719",
            "store_and_fwd_flag": "N",
            "trip_duration": "695"
        },
        {
            "id": "id1530524",
            "vendor_id": "1",
            "pickup_datetime": "2016-03-19 17:41:05",
            "dropoff_datetime": "2016-03-19 17:48:57",
            "pickup_longitude": "-73.953422546386719",
            "passenger_count": "1",
            "pickup_latitude": "40.767658233642578",
            "dropoff_longitude": "-73.980316162109375",
            "dropoff_latitude": "40.737781524658203",
            "store_and_fwd_flag": "N",
            "trip_duration": "472"
        },
        {
            "id": "id1674872",
            "vendor_id": "1",
            "pickup_datetime": "2016-02-29 02:46:24",
            "dropoff_datetime": "2016-02-29 02:55:10",
            "pickup_longitude": "-73.951850891113281",
            "passenger_count": "1",
            "pickup_latitude": "40.714069366455078",
            "dropoff_longitude": "-73.967971801757813",
            "dropoff_latitude": "40.688720703125",
            "store_and_fwd_flag": "N",
            "trip_duration": "526"
        },
        {
            "id": "id1040444",
            "vendor_id": "2",
            "pickup_datetime": "2016-01-07 17:01:32",
            "dropoff_datetime": "2016-01-07 17:13:33",
            "pickup_longitude": "-73.976951599121094",
            "passenger_count": "4",
            "pickup_latitude": "40.752021789550781",
            "dropoff_longitude": "-74.001213073730469",
            "dropoff_latitude": "40.751613616943359",
            "store_and_fwd_flag": "N",
            "trip_duration": "721"
        },
        {
            "id": "id1674996",
            "vendor_id": "1",
            "pickup_datetime": "2016-05-13 12:32:12",
            "dropoff_datetime": "2016-05-13 12:40:44",
            "pickup_longitude": "-74.001800537109375",
            "passenger_count": "1",
            "pickup_latitude": "40.72613525390625",
            "dropoff_longitude": "-74.007156372070312",
            "dropoff_latitude": "40.740806579589844",
            "store_and_fwd_flag": "N",
            "trip_duration": "512"
        },
        {
            "id": "id1965939",
            "vendor_id": "1",
            "pickup_datetime": "2016-05-24 12:16:33",
            "dropoff_datetime": "2016-05-24 12:28:33",
            "pickup_longitude": "-73.994094848632812",
            "passenger_count": "1",
            "pickup_latitude": "40.761550903320313",
            "dropoff_longitude": "-73.980636596679688",
            "dropoff_latitude": "40.789638519287109",
            "store_and_fwd_flag": "N",
            "trip_duration": "720"
        },
        {
            "id": "id0442192",
            "vendor_id": "1",
            "pickup_datetime": "2016-04-10 16:07:46",
            "dropoff_datetime": "2016-04-10 16:10:40",
            "pickup_longitude": "-74.006324768066406",
            "passenger_count": "1",
            "pickup_latitude": "40.733390808105469",
            "dropoff_longitude": "-74.000007629394531",
            "dropoff_latitude": "40.743255615234375",
            "store_and_fwd_flag": "N",
            "trip_duration": "174"
        },
        {
            "id": "id0515898",
            "vendor_id": "2",
            "pickup_datetime": "2016-05-21 17:38:55",
            "dropoff_datetime": "2016-05-21 17:46:53",
            "pickup_longitude": "-74.002571105957031",
            "passenger_count": "1",
            "pickup_latitude": "40.739311218261719",
            "dropoff_longitude": "-73.99188232421875",
            "dropoff_latitude": "40.744998931884766",
            "store_and_fwd_flag": "N",
            "trip_duration": "478"
        },
        {
            "id": "id1182327",
            "vendor_id": "2",
            "pickup_datetime": "2016-02-29 11:22:35",
            "dropoff_datetime": "2016-02-29 11:35:43",
            "pickup_longitude": "-73.94830322265625",
            "passenger_count": "1",
            "pickup_latitude": "40.774436950683594",
            "dropoff_longitude": "-73.963706970214844",
            "dropoff_latitude": "40.755485534667969",
            "store_and_fwd_flag": "N",
            "trip_duration": "788"
        },
        {
            "id": "id3913101",
            "vendor_id": "1",
            "pickup_datetime": "2016-06-25 22:05:46",
            "dropoff_datetime": "2016-06-25 22:22:29",
            "pickup_longitude": "-74.001411437988281",
            "passenger_count": "2",
            "pickup_latitude": "40.761432647705078",
            "dropoff_longitude": "-73.924629211425781",
            "dropoff_latitude": "40.864028930664063",
            "store_and_fwd_flag": "N",
            "trip_duration": "1003"
        },
        {
            "id": "id1680350",
            "vendor_id": "1",
            "pickup_datetime": "2016-03-18 20:56:16",
            "dropoff_datetime": "2016-03-18 20:59:51",
            "pickup_longitude": "-74.002983093261719",
            "passenger_count": "1",
            "pickup_latitude": "40.723312377929688",
            "dropoff_longitude": "-74.001556396484375",
            "dropoff_latitude": "40.728824615478516",
            "store_and_fwd_flag": "N",
            "trip_duration": "215"
        },
        {
            "id": "id0913838",
            "vendor_id": "2",
            "pickup_datetime": "2016-02-03 16:22:50",
            "dropoff_datetime": "2016-02-03 16:37:20",
            "pickup_longitude": "-73.97833251953125",
            "passenger_count": "5",
            "pickup_latitude": "40.754070281982422",
            "dropoff_longitude": "-73.959732055664063",
            "dropoff_latitude": "40.772758483886719",
            "store_and_fwd_flag": "N",
            "trip_duration": "870"
        },
        {
            "id": "id3896508",
            "vendor_id": "2",
            "pickup_datetime": "2016-06-07 22:32:32",
            "dropoff_datetime": "2016-06-07 22:46:06",
            "pickup_longitude": "-73.863380432128906",
            "passenger_count": "1",
            "pickup_latitude": "40.769889831542969",
            "dropoff_longitude": "-73.837127685546875",
            "dropoff_latitude": "40.721359252929688",
            "store_and_fwd_flag": "N",
            "trip_duration": "814"
        },
        {
            "id": "id2846400",
            "vendor_id": "2",
            "pickup_datetime": "2016-03-16 20:13:12",
            "dropoff_datetime": "2016-03-16 20:23:49",
            "pickup_longitude": "-73.99725341796875",
            "passenger_count": "1",
            "pickup_latitude": "40.717960357666016",
            "dropoff_longitude": "-73.999252319335938",
            "dropoff_latitude": "40.730018615722656",
            "store_and_fwd_flag": "N",
            "trip_duration": "637"
        },
        {
            "id": "id1510700",
            "vendor_id": "2",
            "pickup_datetime": "2016-02-20 21:58:13",
            "dropoff_datetime": "2016-02-20 21:59:10",
            "pickup_longitude": "-73.958396911621094",
            "passenger_count": "1",
            "pickup_latitude": "40.772628784179688",
            "dropoff_longitude": "-73.955131530761719",
            "dropoff_latitude": "40.774242401123047",
            "store_and_fwd_flag": "N",
            "trip_duration": "57"
        },
        {
            "id": "id0813128",
            "vendor_id": "2",
            "pickup_datetime": "2016-02-20 18:57:43",
            "dropoff_datetime": "2016-02-20 19:07:32",
            "pickup_longitude": "-73.991203308105469",
            "passenger_count": "2",
            "pickup_latitude": "40.749553680419922",
            "dropoff_longitude": "-73.979194641113281",
            "dropoff_latitude": "40.746307373046875",
            "store_and_fwd_flag": "N",
            "trip_duration": "589"
        },
        {
            "id": "id1158195",
            "vendor_id": "1",
            "pickup_datetime": "2016-03-24 17:58:51",
            "dropoff_datetime": "2016-03-24 18:36:46",
            "pickup_longitude": "-73.992324829101563",
            "passenger_count": "1",
            "pickup_latitude": "40.730720520019531",
            "dropoff_longitude": "-73.872505187988281",
            "dropoff_latitude": "40.774497985839844",
            "store_and_fwd_flag": "N",
            "trip_duration": "2275"
        },
        {
            "id": "id0959273",
            "vendor_id": "1",
            "pickup_datetime": "2016-03-20 23:16:39",
            "dropoff_datetime": "2016-03-20 23:27:26",
            "pickup_longitude": "-73.988838195800781",
            "passenger_count": "1",
            "pickup_latitude": "40.768901824951172",
            "dropoff_longitude": "-73.955535888671875",
            "dropoff_latitude": "40.771743774414063",
            "store_and_fwd_flag": "N",
            "trip_duration": "647"
        },
        {
            "id": "id0739660",
            "vendor_id": "1",
            "pickup_datetime": "2016-05-16 13:07:10",
            "dropoff_datetime": "2016-05-16 13:34:18",
            "pickup_longitude": "-73.9647216796875",
            "passenger_count": "3",
            "pickup_latitude": "40.806606292724609",
            "dropoff_longitude": "-73.984573364257813",
            "dropoff_latitude": "40.760677337646484",
            "store_and_fwd_flag": "N",
            "trip_duration": "1628"
        },
        {
            "id": "id3769871",
            "vendor_id": "1",
            "pickup_datetime": "2016-06-17 17:32:59",
            "dropoff_datetime": "2016-06-17 18:11:56",
            "pickup_longitude": "-73.943145751953125",
            "passenger_count": "1",
            "pickup_latitude": "40.789630889892578",
            "dropoff_longitude": "-73.989479064941406",
            "dropoff_latitude": "40.762763977050781",
            "store_and_fwd_flag": "N",
            "trip_duration": "2337"
        },
        {
            "id": "id1818021",
            "vendor_id": "1",
            "pickup_datetime": "2016-03-23 00:34:10",
            "dropoff_datetime": "2016-03-23 00:45:24",
            "pickup_longitude": "-74.01116943359375",
            "passenger_count": "1",
            "pickup_latitude": "40.703605651855469",
            "dropoff_longitude": "-74.005691528320313",
            "dropoff_latitude": "40.741359710693359",
            "store_and_fwd_flag": "N",
            "trip_duration": "674"
        },
        {
            "id": "id0982165",
            "vendor_id": "2",
            "pickup_datetime": "2016-04-12 21:29:16",
            "dropoff_datetime": "2016-04-12 21:49:06",
            "pickup_longitude": "-73.980316162109375",
            "passenger_count": "1",
            "pickup_latitude": "40.75885009765625",
            "dropoff_longitude": "-74.010139465332031",
            "dropoff_latitude": "40.705081939697266",
            "store_and_fwd_flag": "N",
            "trip_duration": "1190"
        },
        {
            "id": "id1519515",
            "vendor_id": "2",
            "pickup_datetime": "2016-06-11 12:52:19",
            "dropoff_datetime": "2016-06-11 13:12:10",
            "pickup_longitude": "-73.950492858886719",
            "passenger_count": "1",
            "pickup_latitude": "40.771266937255859",
            "dropoff_longitude": "-74.001243591308594",
            "dropoff_latitude": "40.746490478515625",
            "store_and_fwd_flag": "N",
            "trip_duration": "1191"
        },
        {
            "id": "id1082443",
            "vendor_id": "2",
            "pickup_datetime": "2016-02-25 14:56:26",
            "dropoff_datetime": "2016-02-25 15:09:31",
            "pickup_longitude": "-73.98712158203125",
            "passenger_count": "1",
            "pickup_latitude": "40.768474578857422",
            "dropoff_longitude": "-73.975822448730469",
            "dropoff_latitude": "40.759712219238281",
            "store_and_fwd_flag": "N",
            "trip_duration": "785"
        },
        {
            "id": "id2934884",
            "vendor_id": "2",
            "pickup_datetime": "2016-01-07 19:32:15",
            "dropoff_datetime": "2016-01-07 19:40:55",
            "pickup_longitude": "-73.98638916015625",
            "passenger_count": "1",
            "pickup_latitude": "40.756614685058594",
            "dropoff_longitude": "-73.999794006347656",
            "dropoff_latitude": "40.761631011962891",
            "store_and_fwd_flag": "N",
            "trip_duration": "520"
        },
        {
            "id": "id1205949",
            "vendor_id": "1",
            "pickup_datetime": "2016-06-05 18:43:14",
            "dropoff_datetime": "2016-06-05 18:46:52",
            "pickup_longitude": "-73.962608337402344",
            "passenger_count": "1",
            "pickup_latitude": "40.758827209472656",
            "dropoff_longitude": "-73.954193115234375",
            "dropoff_latitude": "40.764053344726562",
            "store_and_fwd_flag": "N",
            "trip_duration": "218"
        },
        {
            "id": "id2592310",
            "vendor_id": "2",
            "pickup_datetime": "2016-06-13 07:20:46",
            "dropoff_datetime": "2016-06-13 07:24:28",
            "pickup_longitude": "-73.99041748046875",
            "passenger_count": "1",
            "pickup_latitude": "40.756881713867188",
            "dropoff_longitude": "-73.981979370117187",
            "dropoff_latitude": "40.759990692138672",
            "store_and_fwd_flag": "N",
            "trip_duration": "222"
        },
        {
            "id": "id0883711",
            "vendor_id": "1",
            "pickup_datetime": "2016-01-16 21:22:41",
            "dropoff_datetime": "2016-01-16 21:42:45",
            "pickup_longitude": "-73.993637084960938",
            "passenger_count": "1",
            "pickup_latitude": "40.734218597412109",
            "dropoff_longitude": "-73.961463928222656",
            "dropoff_latitude": "40.769298553466797",
            "store_and_fwd_flag": "N",
            "trip_duration": "1204"
        },
        {
            "id": "id0283075",
            "vendor_id": "1",
            "pickup_datetime": "2016-04-06 23:42:26",
            "dropoff_datetime": "2016-04-07 00:12:08",
            "pickup_longitude": "-73.782478332519531",
            "passenger_count": "1",
            "pickup_latitude": "40.644645690917969",
            "dropoff_longitude": "-73.981124877929688",
            "dropoff_latitude": "40.72088623046875",
            "store_and_fwd_flag": "N",
            "trip_duration": "1782"
        },
        {
            "id": "id2107497",
            "vendor_id": "1",
            "pickup_datetime": "2016-05-13 20:46:55",
            "dropoff_datetime": "2016-05-13 21:06:29",
            "pickup_longitude": "-74.013954162597656",
            "passenger_count": "2",
            "pickup_latitude": "40.712833404541016",
            "dropoff_longitude": "-73.997550964355469",
            "dropoff_latitude": "40.718074798583984",
            "store_and_fwd_flag": "N",
            "trip_duration": "1174"
        },
        {
            "id": "id2090852",
            "vendor_id": "2",
            "pickup_datetime": "2016-01-28 11:25:20",
            "dropoff_datetime": "2016-01-28 11:30:56",
            "pickup_longitude": "-73.968826293945313",
            "passenger_count": "1",
            "pickup_latitude": "40.754196166992188",
            "dropoff_longitude": "-73.972755432128906",
            "dropoff_latitude": "40.746612548828125",
            "store_and_fwd_flag": "N",
            "trip_duration": "336"
        },
        {
            "id": "id1297351",
            "vendor_id": "2",
            "pickup_datetime": "2016-06-24 14:24:31",
            "dropoff_datetime": "2016-06-24 14:32:21",
            "pickup_longitude": "-74.003288269042969",
            "passenger_count": "1",
            "pickup_latitude": "40.726970672607422",
            "dropoff_longitude": "-73.993301391601563",
            "dropoff_latitude": "40.739120483398437",
            "store_and_fwd_flag": "N",
            "trip_duration": "470"
        },
        {
            "id": "id0667605",
            "vendor_id": "2",
            "pickup_datetime": "2016-05-27 16:17:36",
            "dropoff_datetime": "2016-05-27 16:23:22",
            "pickup_longitude": "-73.991058349609375",
            "passenger_count": "1",
            "pickup_latitude": "40.739570617675781",
            "dropoff_longitude": "-74.006103515625",
            "dropoff_latitude": "40.734550476074219",
            "store_and_fwd_flag": "N",
            "trip_duration": "346"
        },
        {
            "id": "id1476107",
            "vendor_id": "1",
            "pickup_datetime": "2016-05-22 15:41:29",
            "dropoff_datetime": "2016-05-22 15:48:28",
            "pickup_longitude": "-73.966880798339844",
            "passenger_count": "1",
            "pickup_latitude": "40.788681030273438",
            "dropoff_longitude": "-73.962821960449219",
            "dropoff_latitude": "40.775726318359375",
            "store_and_fwd_flag": "N",
            "trip_duration": "419"
        },
        {
            "id": "id0673727",
            "vendor_id": "2",
            "pickup_datetime": "2016-05-18 19:15:27",
            "dropoff_datetime": "2016-05-18 19:44:49",
            "pickup_longitude": "-73.961677551269531",
            "passenger_count": "1",
            "pickup_latitude": "40.775966644287109",
            "dropoff_longitude": "-73.857391357421875",
            "dropoff_latitude": "40.733283996582031",
            "store_and_fwd_flag": "N",
            "trip_duration": "1762"
        },
        {
            "id": "id2030290",
            "vendor_id": "1",
            "pickup_datetime": "2016-03-31 11:33:30",
            "dropoff_datetime": "2016-03-31 12:12:31",
            "pickup_longitude": "-73.86431884765625",
            "passenger_count": "3",
            "pickup_latitude": "40.769828796386719",
            "dropoff_longitude": "-73.985862731933594",
            "dropoff_latitude": "40.760951995849609",
            "store_and_fwd_flag": "N",
            "trip_duration": "2341"
        },
        {
            "id": "id3770790",
            "vendor_id": "1",
            "pickup_datetime": "2016-02-13 13:12:49",
            "dropoff_datetime": "2016-02-13 13:19:35",
            "pickup_longitude": "-73.992233276367188",
            "passenger_count": "1",
            "pickup_latitude": "40.744281768798828",
            "dropoff_longitude": "-74.008232116699219",
            "dropoff_latitude": "40.748825073242188",
            "store_and_fwd_flag": "N",
            "trip_duration": "406"
        },
        {
            "id": "id3025098",
            "vendor_id": "2",
            "pickup_datetime": "2016-01-20 19:21:31",
            "dropoff_datetime": "2016-01-20 19:31:27",
            "pickup_longitude": "-73.976982116699219",
            "passenger_count": "1",
            "pickup_latitude": "40.750301361083984",
            "dropoff_longitude": "-73.999122619628906",
            "dropoff_latitude": "40.739509582519531",
            "store_and_fwd_flag": "N",
            "trip_duration": "596"
        },
        {
            "id": "id3333094",
            "vendor_id": "2",
            "pickup_datetime": "2016-06-02 23:34:00",
            "dropoff_datetime": "2016-06-02 23:41:15",
            "pickup_longitude": "-73.973464965820313",
            "passenger_count": "1",
            "pickup_latitude": "40.755229949951172",
            "dropoff_longitude": "-73.977363586425781",
            "dropoff_latitude": "40.742820739746094",
            "store_and_fwd_flag": "N",
            "trip_duration": "435"
        },
        {
            "id": "id2228940",
            "vendor_id": "1",
            "pickup_datetime": "2016-02-04 13:22:02",
            "dropoff_datetime": "2016-02-04 13:40:30",
            "pickup_longitude": "-73.981864929199219",
            "passenger_count": "1",
            "pickup_latitude": "40.758773803710937",
            "dropoff_longitude": "-73.970222473144531",
            "dropoff_latitude": "40.784141540527344",
            "store_and_fwd_flag": "N",
            "trip_duration": "1108"
        },
        {
            "id": "id2102594",
            "vendor_id": "1",
            "pickup_datetime": "2016-03-30 16:14:29",
            "dropoff_datetime": "2016-03-30 17:01:33",
            "pickup_longitude": "-73.789840698242188",
            "passenger_count": "1",
            "pickup_latitude": "40.643558502197266",
            "dropoff_longitude": "-73.970664978027344",
            "dropoff_latitude": "40.687278747558594",
            "store_and_fwd_flag": "N",
            "trip_duration": "2824"
        },
        {
            "id": "id0010677",
            "vendor_id": "1",
            "pickup_datetime": "2016-04-29 10:40:34",
            "dropoff_datetime": "2016-04-29 10:53:23",
            "pickup_longitude": "-73.991973876953125",
            "passenger_count": "2",
            "pickup_latitude": "40.749996185302734",
            "dropoff_longitude": "-73.977882385253906",
            "dropoff_latitude": "40.754894256591797",
            "store_and_fwd_flag": "N",
            "trip_duration": "769"
        }
    ]
}